<?xml version="1.0" encoding="UTF-8"?>
<!-- Generator: Adobe Illustrator 19.2.1, SVG Export Plug-In . SVG Version: 6.00 Build 0)  -->
<svg version="1.1" id="Layer_1" xmlns="http://www.w3.org/2000/svg" x="0px" y="0px" viewBox="0 0 122 18" style="enable-background:new 0 0 122 18;" xml:space="preserve">
<style type="text/css">
	.st0{fill:#3A2D79;}
</style>
<path class="st0" d="M58,4.9c0,2.4-0.2,10-0.2,10c0,1.4,0.4,2.1,1.8,2.1v0.7h-5.4v-0.7c1.4,0,2.1-0.7,2.1-2.1l0.5-12.4  c-0.4-1-0.8-1.3-1.8-1.4V0.5h4.1L63.4,12l4.4-11.5h3.7v0.5c-1.1,0-1.6,0.4-1.6,1.6l0.4,11.9c0,1.7,0.3,2.3,1.7,2.3v0.7h-6.3v-0.7  c1.2,0,1.7-0.4,1.7-2.3c0,0-0.2-8.3-0.3-9.9l-3,8.2c-0.4,1.1-0.8,2.3-1.1,3.6l-0.8,0.2c-0.2-0.9-0.9-2.5-0.9-2.5S58.9,7.3,58,4.9  L58,4.9z"/>
<path class="st0" d="M52.9,17.7c-0.3-0.1-0.7-0.1-1-0.1c-0.7,0-1.7,0.3-3.1,0.3c-5.3,0-9.2-3.1-9.2-9c0-5,3.7-8.8,9.2-8.8  c1.3,0,2.7,0.2,4,0.8c0.2-0.2,0.3-0.4,0.5-0.7h0.4C53.7,1.1,53.4,4,53.4,4h-0.4c-0.3-1.7-1.2-2.8-4-2.8c-3.4,0-6.5,2.7-6.5,7.6  c0,5.6,3.1,8,6.6,8c2.3,0,3.7-1.3,4.6-2.9l0.5,0.2L52.9,17.7L52.9,17.7z"/>
<path class="st0" d="M37.5,3.7H37c-0.1-1.5-0.5-2.1-1.7-2.1h-2.4v12.8c0,2.1,0.4,2.5,1.7,2.5v0.7h-6.1v-0.7c1.4,0,1.7-0.4,1.7-2.6  V1.7h-2.4c-1.5,0-1.7,0.4-2.2,2.1h-0.5l0.4-3.7L26,0.2c0.1,0.4,0.4,0.4,1.4,0.4h7.9c1.4,0,1.7,0,2.1-0.4h0.4L37.5,3.7L37.5,3.7z"/>
<path class="st0" d="M20.3,18c-1.1,0-2.1-0.1-2.7-0.4c-0.7-0.1-1.1-0.4-1.4-0.5c-0.3,0.3-0.5,0.8-0.5,0.8l-0.4-0.1l0.4-3.8l0.5,0.1  c0.3,1.7,1.5,3,4,3c2,0,3.3-1.6,3.3-3.4c0-1.4-0.5-2.2-2.5-3.7c-0.7-0.4-1.2-0.8-1.7-1.1c-1.7-1.1-2.9-2.4-2.9-4.6  c0-2.4,2.1-4,4.7-4c1.5,0,2.5,0.4,2.8,0.7l0.7-0.9l0.4,0.1l-0.4,3.5l-0.5-0.1c0-1.6-1-2.4-2.6-2.4c-1.5,0-2.7,0.8-2.7,2.4  c0,1.4,1.1,2.3,2.3,3c0.7,0.4,1.1,0.8,1.6,1.1c2.8,2.1,3.5,3.4,3.5,5.3C25.9,15.9,23.8,18,20.3,18L20.3,18z"/>
<path class="st0" d="M11.1,3.7h-0.7c0-1.4-0.7-2.1-2-2.1H4.8V8h2.4c1.2,0,1.4-0.7,1.6-1.7h0.5v4.6H8.8C8.7,9.7,8.4,9.1,7.1,9.1H4.8  v5.4c0,2.1,0.4,2.3,1.7,2.3v0.7H0.3v-0.7c1.5,0,1.7-0.4,1.7-2.3V2.6C2.1,1.5,1.6,1,0.3,1V0.5h8.5c1.4,0,1.7-0.1,2.1-0.5h0.5  L11.1,3.7L11.1,3.7z"/>
<path class="st0" d="M98.8,4.7v9.8c0,2.1,0.4,2.5,1.7,2.5v0.7H91v-0.7c0.8,0,1.4-0.2,1.4-0.8c0-0.3-0.1-0.9-0.2-1.4l-0.8-2.4h-5.3  C86,12.7,85,15.4,85,16c0,0.7,0.8,0.8,1.2,0.8v0.7h-4.4v-0.7c0.8,0,1.4-0.1,2.1-1.7l4.1-13.2c-0.2-0.5-0.5-0.8-1.1-0.8V0.5h3.7  l4.3,13.9c0.4,1.4,0.8,2.2,1.4,2.5c1-0.3,1.2-0.7,1.2-2.5V2.7c-0.8-1-0.8-1.6-2.2-1.6V0.5h4.1l6.8,11.6V3.4c0-1.7-0.4-2.2-1.7-2.2  V0.5h9.1v0.5c-0.5,0-1.1,0.2-1.1,0.8c0,0.4,0.1,0.8,0.3,1.3l2.6,5.6l2.5-5.4c0.4-0.8,0.4-1.1,0.4-1.5s-0.3-0.8-1.1-0.8V0.5h4.3v0.5  c-1.1,0-1.7,1-2.2,2.1l-3.4,6.8v4.4c0,2,0.4,2.4,1.7,2.4v0.7h-6.2v-0.7c1.3,0,1.7-0.4,1.7-2.4v-3.8L109.8,3  c-0.7-1.4-0.9-1.7-1.3-2.1c-0.8,0.3-1.1,0.9-1.1,2.2v12.5c0,0,0.1,1,0.1,2.1l-1.1,0.1L98.8,4.7L98.8,4.7z M88.6,3.9l-2.3,7.4H91  L88.6,3.9L88.6,3.9z"/>
<path class="st0" d="M78.5,11.3c0,0-0.8,0-1.2,0v3.5c0,1.7,0.4,2.2,1.8,2.2v0.7h-6.3v-0.7c1.3,0,1.7-0.4,1.7-2.3V3.3  c0-1.7-0.4-2.1-1.7-2.1V0.5h4.7c4.6,0,7.3,1.4,7.3,5.1C84.8,9.5,81.5,11.3,78.5,11.3L78.5,11.3z M77.6,1.7h-0.4v8.3H78  c2.7,0,4-1.2,4-4.3C82.1,2.7,80.9,1.7,77.6,1.7L77.6,1.7z"/>
<path class="st0" d="M50.1,14.3c-3,0-5.2-2.2-5.2-5.3c0-3,2.2-5.3,5.2-5.3C53,3.7,55.2,6,55.2,9S52.9,14.3,50.1,14.3L50.1,14.3z   M50.1,4.7c-2.1,0-2.8,2.1-2.8,4.3c0,2.2,0.7,4.3,2.8,4.3c2.1,0,2.7-2.2,2.7-4.4C52.9,6.7,52.1,4.7,50.1,4.7L50.1,4.7z"/>
<path class="st0" d="M14.3,13.3v-0.5c0.8,0,1-0.2,1-0.4c0-0.3-0.1-0.5-0.1-0.8c0,0-0.1-0.7-0.3-1.1h-3.1l-0.3,1.1  c-0.1,0.2-0.1,0.4-0.1,0.8s0.3,0.5,0.8,0.5v0.4H8.9v-0.5c0.8,0,1.1-0.2,1.4-1.1l2.4-7.3c-0.1-0.3-0.3-0.5-0.8-0.5V3.3h2.6  c2.1,6.2,2.7,7.8,2.7,7.8c0.4,1.4,0.8,1.7,1.4,1.7v0.5H14.3L14.3,13.3z M13.2,5.5l-1.2,4h2.5L13.2,5.5L13.2,5.5z"/>
</svg>