<?xml version="1.0" encoding="UTF-8"?>
<!-- Generator: Adobe Illustrator 19.0.1, SVG Export Plug-In . SVG Version: 6.00 Build 0)  -->
<!DOCTYPE svg PUBLIC "-//W3C//DTD SVG 1.1//EN" "http://www.w3.org/Graphics/SVG/1.1/DTD/svg11.dtd">
<svg version="1.1" id="Layer_1" xmlns="http://www.w3.org/2000/svg" xmlns:xlink="http://www.w3.org/1999/xlink" x="0px" y="0px" viewBox="2 2 140 140" enable-background="new 2 2 140 140" xml:space="preserve">
<g id="Layer_1_1_">
</g>
<g id="design">
	<g>
		<g>
			<g>
				<g>
					<polyline fill="none" stroke="#57C1B3" stroke-width="3" stroke-miterlimit="10" points="109.3,96.8 116.1,103.6 102.8,116.8             "/>
					<path fill="none" stroke="#57C1B3" stroke-width="3" stroke-miterlimit="10" d="M106.5,131.8l21.3-21.2       c4.7-5.4,4.8-13.4,0.1-18.9l-6.7-6.7"/>
				</g>
			</g>
			<g>
				<g>
					<path fill="none" stroke="#57C1B3" stroke-width="3" stroke-miterlimit="10" d="M37.4,131.6l-21-21c-4.7-5.4-4.8-13.4-0.1-18.9       l6.7-6.7"/>
					<polyline fill="none" stroke="#57C1B3" stroke-width="3" stroke-miterlimit="10" points="34.8,96.8 28.1,103.6 41.3,116.8             "/>
				</g>
			</g>
			<path fill="none" stroke="#57C1B3" stroke-width="3" stroke-miterlimit="10" d="M66.1,59.1H54.6c-4.4,0-10.5,2.6-13.7,5.7l-19,19     l13,13l11.5-11.4v54.9h25.7h25.7V85.4l11.6,11.4l12.9-13l-19-19c-3.2-3.2-9.3-5.7-13.7-5.7h-9.7"/>
			<line fill="none" stroke="#57C1B3" stroke-width="3" stroke-miterlimit="10" x1="46.4" y1="134.1" x2="97.8" y2="134.1"/>
			<line fill="none" stroke="#57C1B3" stroke-width="3" stroke-miterlimit="10" x1="97.8" y1="140.2" x2="46.4" y2="140.2"/>
			<g>
				<g>
					<g>
						<path fill="none" stroke="#57C1B3" stroke-width="3" stroke-miterlimit="10" d="M78.5,86.3L78.5,86.3c-1.1-1.4-3-3-6-3        c-4.5,0-7.8,3.4-7.8,8.1c0,4.7,3.2,8.1,7.8,8.1c3.2,0,5-1.6,6-3l0,0"/>
						<line fill="none" stroke="#57C1B3" stroke-width="3" stroke-miterlimit="10" x1="62.4" y1="107.5" x2="81.8" y2="107.5"/>
					</g>
				</g>
			</g>
			<g>
				<g>
					<g>
						<path fill="none" stroke="#57C1B3" stroke-width="3" stroke-miterlimit="10" d="M66.1,54.6v7.5c0,3,2.5,5.4,5.4,5.4h3        c3,0,5.4-2.5,5.4-5.4v-2.6v-4.9"/>
					</g>
					<g>
						<g>
							<path fill="none" stroke="#57C1B3" stroke-width="3" stroke-miterlimit="10" d="M56.2,31.7c-3,0-5.3,2.4-5.3,5.3         s2.4,5.3,5.3,5.3"/>
							<path fill="none" stroke="#57C1B3" stroke-width="3" stroke-miterlimit="10" d="M89.8,42.5c3,0,5.3-2.4,5.3-5.3         c0-3-2.4-5.3-5.3-5.3"/>
							<path fill="none" stroke="#57C1B3" stroke-width="3" stroke-miterlimit="10" d="M89.8,28.9v9.1c0,9.3-7.6,18.4-16.8,18.4         s-16.8-9.2-16.8-18.4V22.1"/>
						</g>
					</g>
				</g>
				<path fill="none" stroke="#57C1B3" stroke-width="3" stroke-miterlimit="10" d="M82.4,10L82.4,10h-11V4.3h-11      c-5.1,0-9.3,4.1-9.3,9.3c0,1,0.2,2,0.5,3H50c-1.3,0-2.2,1.1-2,2.4l3.1,16.5h0.1c0.7-2.1,2.7-3.5,4.9-3.6v-9.7      c0,0,2.8,0.8,4.9,0.8h22.5c3.5,0.1,6.3,3,6.3,6.4v2.5l0,0c2.3,0,4.1,1.4,4.9,3.3l0,0c0.9-2.1,1.4-4.2,1.4-6.7v-4.6      C96.1,16.2,90,10.1,82.4,10z"/>
			</g>
		</g>
		<line fill="none" stroke="#57C1B3" stroke-width="3" stroke-miterlimit="10" x1="97.8" y1="85.4" x2="97.8" y2="79.3"/>
		<line fill="none" stroke="#57C1B3" stroke-width="3" stroke-miterlimit="10" x1="46.4" y1="86.1" x2="46.4" y2="79.3"/>
		<path fill="none" stroke="#57C1B3" stroke-width="3" stroke-miterlimit="10" d="M97.8,115.3v24.9c4.9,0,8.7-3.5,8.7-9v-7.1    C106.5,118.8,102.7,115.3,97.8,115.3z"/>
		<path fill="none" stroke="#57C1B3" stroke-width="3" stroke-miterlimit="10" d="M46.4,115.3v24.9c-4.9,0-8.7-3.5-8.7-9v-7.1    C37.7,118.8,41.5,115.3,46.4,115.3z"/>
		<line fill="none" stroke="#57C1B3" stroke-width="3" stroke-miterlimit="10" x1="118.1" y1="79.6" x2="105.1" y2="92.6"/>
		<line fill="none" stroke="#57C1B3" stroke-width="3" stroke-miterlimit="10" x1="26.1" y1="79.6" x2="39" y2="92.6"/>
	</g>
</g>
</svg>