<?xml version="1.0" encoding="UTF-8" standalone="no"?>
<svg width="60px" height="60px" viewBox="0 0 60 60" version="1.1" xmlns="http://www.w3.org/2000/svg" xmlns:xlink="http://www.w3.org/1999/xlink" xmlns:sketch="http://www.bohemiancoding.com/sketch/ns">
    <!-- Generator: Sketch 3.4 (15575) - http://www.bohemiancoding.com/sketch -->
    <title>Order - Facebook</title>
    <desc>Created with Sketch.</desc>
    <defs/>
    <g id="Page-1" stroke="none" stroke-width="1" fill="none" fill-rule="evenodd" sketch:type="MSPage">
        <g id="Artboard-1" sketch:type="MSArtboardGroup" transform="translate(-300.000000, 0.000000)" stroke="#57C1B3" stroke-width="1.5">
            <g id="Order---Facebook" sketch:type="MSLayerGroup" transform="translate(323.000000, 16.000000)">
                <path d="M4.1382024,28 L4.1382024,15.2279596 L0,15.2279596 L0,10.2503796 L4.1382024,10.2503796 L4.1382024,6.57959962 C4.1382024,2.31961657 6.64330149,7.00348999e-16 10.3021382,7.00348999e-16 C12.0546963,7.00348999e-16 13.5610871,0.135561205 14,0.1961127 L14,4.64800692 L11.4624197,4.64924266 C9.4724989,4.64924266 9.08724547,5.63128906 9.08724547,7.07241465 L9.08724547,10.2503796 L13.8329537,10.2503796 L13.2149777,15.2279596 L9.08724547,15.2279596 L9.08724547,28 L4.1382024,28 Z" id="Imported-Layers" sketch:type="MSShapeGroup"/>
            </g>
        </g>
    </g>
</svg>